Histopathology Research Template
…
inspectdf::inspect_num(mydata, breaks = 10)

# A tibble: 3 x 10
  col_name        min    q1 median  mean    q3   max     sd pcnt_na hist        
  <chr>         <dbl> <dbl>  <dbl> <dbl> <dbl> <dbl>  <dbl>   <dbl> <named list>
1 Age              25    36     48 48.2     60    73 14.1       0.4 <tibble [12â€¦
2 Anti-X-intenâ€¦     1     2      3  2.49     3     3  0.636     0.4 <tibble [12â€¦
3 Anti-Y-intenâ€¦     1     1      2  1.92     3     3  0.787     0.4 <tibble [12â€¦

inspectdf::inspect_num(mydata)$hist$Age

# A tibble: 27 x 2
   value        prop
   <chr>       <dbl>
 1 [-Inf, 24) 0     
 2 [24, 26)   0.0241
 3 [26, 28)   0.0281
 4 [28, 30)   0.0442
 5 [30, 32)   0.0482
 6 [32, 34)   0.0643
 7 [34, 36)   0.0281
 8 [36, 38)   0.0361
 9 [38, 40)   0.0442
10 [40, 42)   0.0643
# â€¦ with 17 more rows
…
