…
```r
mydata %>% explore::describe()
```

```
# A tibble: 21 x 8
   variable             type     na na_pct unique   min  mean   max
   <chr>                <chr> <int>  <dbl>  <int> <dbl> <dbl> <dbl>
 1 ID                   chr       0    0      250    NA NA       NA
 2 Name                 chr       1    0.4    250    NA NA       NA
 3 Sex                  chr       1    0.4      3    NA NA       NA
 4 Age                  dbl       1    0.4     50    25 50.1     73
 5 Race                 chr       1    0.4      7    NA NA       NA
 6 PreinvasiveComponent chr       1    0.4      3    NA NA       NA
 7 LVI                  chr       0    0        2    NA NA       NA
 8 PNI                  chr       1    0.4      3    NA NA       NA
 9 LastFollowUpDate     dat       1    0.4     13    NA NA       NA
10 Death                lgl       1    0.4      3     0  0.74     1
# … with 11 more rows
```
…
```r
mydata %>% explore::describe()
```

```
# A tibble: 21 x 8
   variable             type     na na_pct unique   min  mean   max
   <chr>                <chr> <int>  <dbl>  <int> <dbl> <dbl> <dbl>
 1 ID                   chr       0    0      250    NA NA       NA
 2 Name                 chr       1    0.4    250    NA NA       NA
 3 Sex                  chr       1    0.4      3    NA NA       NA
 4 Age                  dbl       1    0.4     50    25 50.1     73
 5 Race                 chr       1    0.4      7    NA NA       NA
 6 PreinvasiveComponent chr       1    0.4      3    NA NA       NA
 7 LVI                  chr       0    0        2    NA NA       NA
 8 PNI                  chr       1    0.4      3    NA NA       NA
 9 LastFollowUpDate     dat       1    0.4     13    NA NA       NA
10 Death                lgl       1    0.4      3     0  0.74     1
# … with 11 more rows
```
…
```r
inspectdf::inspect_num(mydata)$hist$Age
```

```
# A tibble: 27 x 2
   value        prop
   <chr>       <dbl>
 1 [-Inf, 24) 0     
 2 [24, 26)   0.0201
 3 [26, 28)   0.0442
 4 [28, 30)   0.0281
 5 [30, 32)   0.0522
 6 [32, 34)   0.0321
 7 [34, 36)   0.0402
 8 [36, 38)   0.0321
 9 [38, 40)   0.0361
10 [40, 42)   0.0402
# … with 17 more rows
```
…
