Introduction â€¢ HistopathTemplate
…
mydata %>% explore::describe()

# A tibble: 21 x 8
   variable             type     na na_pct unique   min  mean   max
   <chr>                <chr> <int>  <dbl>  <int> <dbl> <dbl> <dbl>
 1 ID                   chr       0    0      250    NA NA       NA
 2 Name                 chr       1    0.4    250    NA NA       NA
 3 Sex                  chr       1    0.4      3    NA NA       NA
 4 Age                  dbl       1    0.4     50    25 48.6     73
 5 Race                 chr       1    0.4      8    NA NA       NA
 6 PreinvasiveComponent chr       1    0.4      3    NA NA       NA
 7 LVI                  chr       0    0        2    NA NA       NA
 8 PNI                  chr       1    0.4      3    NA NA       NA
 9 LastFollowUpDate     dat       1    0.4     13    NA NA       NA
10 Death                lgl       1    0.4      3     0  0.68     1
# â€¦ with 11 more rows
…
mydata %>% explore::describe()

# A tibble: 21 x 8
   variable             type     na na_pct unique   min  mean   max
   <chr>                <chr> <int>  <dbl>  <int> <dbl> <dbl> <dbl>
 1 ID                   chr       0    0      250    NA NA       NA
 2 Name                 chr       1    0.4    250    NA NA       NA
 3 Sex                  chr       1    0.4      3    NA NA       NA
 4 Age                  dbl       1    0.4     50    25 48.6     73
 5 Race                 chr       1    0.4      8    NA NA       NA
 6 PreinvasiveComponent chr       1    0.4      3    NA NA       NA
 7 LVI                  chr       0    0        2    NA NA       NA
 8 PNI                  chr       1    0.4      3    NA NA       NA
 9 LastFollowUpDate     dat       1    0.4     13    NA NA       NA
10 Death                lgl       1    0.4      3     0  0.68     1
# â€¦ with 11 more rows
…
mydata %>% dplyr::select(continiousVariables) %>% SmartEDA::ExpNumStat(data = ., 
    by = "A", gp = NULL, Qnt = seq(0, 1, 0.1), MesofShape = 2, Outlier = TRUE, round = 2)

inspectdf::inspect_num(mydata, breaks = 10)

# A tibble: 3 x 10
  col_name        min    q1 median  mean    q3   max     sd pcnt_na hist        
  <chr>         <dbl> <dbl>  <dbl> <dbl> <dbl> <dbl>  <dbl>   <dbl> <named list>
1 Age              25    36     48 48.6     61    73 14.1       0.4 <tibble [12â€¦
2 AntiX_intensâ€¦     1     2      2  2.39     3     3  0.663     0.4 <tibble [12â€¦
3 AntiY_intensâ€¦     1     1      2  1.91     2     3  0.748     0.4 <tibble [12â€¦

inspectdf::inspect_num(mydata)$hist$Age

# A tibble: 27 x 2
   value        prop
   <chr>       <dbl>
 1 [-Inf, 24) 0     
 2 [24, 26)   0.0241
 3 [26, 28)   0.0281
 4 [28, 30)   0.0482
 5 [30, 32)   0.0402
 6 [32, 34)   0.0562
 7 [34, 36)   0.0402
 8 [36, 38)   0.0402
 9 [38, 40)   0.0321
10 [40, 42)   0.0402
# â€¦ with 17 more rows
…
